{"response":{"status":"ok","userTier":"developer","total":1959882,"startIndex":1,"pageSize":10,"currentPage":1,"pages":195989,"orderBy":"newest","results":[{"id":"politics/2017/jun/21/theresa-may-drops-key-manifesto-pledges-from-queens-speech","type":"article","sectionId":"politics","sectionName":"Politics","webPublicationDate":"2017-06-21T10:55:27Z","webTitle":"Theresa May drops key manifesto pledges from Queen's speech","webUrl":"https://www.theguardian.com/politics/2017/jun/21/theresa-may-drops-key-manifesto-pledges-from-queens-speech","apiUrl":"https://content.guardianapis.com/politics/2017/jun/21/theresa-may-drops-key-manifesto-pledges-from-queens-speech","isHosted":false},{"id":"politics/blog/live/2017/jun/21/queens-speech-2017-theresa-may-promises-humility-and-resolve-as-she-publishes-legislative-programme-politics-live","type":"liveblog","sectionId":"politics","sectionName":"Politics","webPublicationDate":"2017-06-21T10:55:27Z","webTitle":"Queen's speech 2017: Government will deliver eight separate bills on Brexit - live","webUrl":"https://www.theguardian.com/politics/blog/live/2017/jun/21/queens-speech-2017-theresa-may-promises-humility-and-resolve-as-she-publishes-legislative-programme-politics-live","apiUrl":"https://content.guardianapis.com/politics/blog/live/2017/jun/21/queens-speech-2017-theresa-may-promises-humility-and-resolve-as-she-publishes-legislative-programme-politics-live","isHosted":false},{"id":"sport/live/2017/jun/21/nsw-blues-v-queensland-maroons-state-of-origin-2017-game-ii-live","type":"liveblog","sectionId":"sport","sectionName":"Sport","webPublicationDate":"2017-06-21T10:54:19Z","webTitle":"State of Origin 2017 Game 2: NSW Blues v Queensland Maroons – live!","webUrl":"https://www.theguardian.com/sport/live/2017/jun/21/nsw-blues-v-queensland-maroons-state-of-origin-2017-game-ii-live","apiUrl":"https://content.guardianapis.com/sport/live/2017/jun/21/nsw-blues-v-queensland-maroons-state-of-origin-2017-game-ii-live","isHosted":false},{"id":"business/live/2017/jun/21/oil-price-markets-public-finances-ftse-pound-business-live","type":"liveblog","sectionId":"business","sectionName":"Business","webPublicationDate":"2017-06-21T10:50:33Z","webTitle":"UK deficit falls in boost for Philip Hammond - business live","webUrl":"https://www.theguardian.com/business/live/2017/jun/21/oil-price-markets-public-finances-ftse-pound-business-live","apiUrl":"https://content.guardianapis.com/business/live/2017/jun/21/oil-price-markets-public-finances-ftse-pound-business-live","isHosted":false},{"id":"politics/2017/jun/21/what-was-in-the-queens-speech-and-what-was-left-out","type":"article","sectionId":"politics","sectionName":"Politics","webPublicationDate":"2017-06-21T10:48:00Z","webTitle":"What was in the Queen's speech – and what was left out","webUrl":"https://www.theguardian.com/politics/2017/jun/21/what-was-in-the-queens-speech-and-what-was-left-out","apiUrl":"https://content.guardianapis.com/politics/2017/jun/21/what-was-in-the-queens-speech-and-what-was-left-out","isHosted":false},{"id":"politics/2017/jun/21/donald-trump-uk-state-visit-not-mentioned-queens-speech","type":"article","sectionId":"politics","sectionName":"Politics","webPublicationDate":"2017-06-21T10:47:11Z","webTitle":"Trump's state visit to UK not mentioned in Queen's speech","webUrl":"https://www.theguardian.com/politics/2017/jun/21/donald-trump-uk-state-visit-not-mentioned-queens-speech","apiUrl":"https://content.guardianapis.com/politics/2017/jun/21/donald-trump-uk-state-visit-not-mentioned-queens-speech","isHosted":false},{"id":"technology/2017/jun/20/uber-ceo-travis-kalanick-resigns","type":"article","sectionId":"technology","sectionName":"Technology","webPublicationDate":"2017-06-21T10:46:36Z","webTitle":"Uber CEO Travis Kalanick resigns following months of chaos","webUrl":"https://www.theguardian.com/technology/2017/jun/20/uber-ceo-travis-kalanick-resigns","apiUrl":"https://content.guardianapis.com/technology/2017/jun/20/uber-ceo-travis-kalanick-resigns","isHosted":false},{"id":"politics/2017/jun/21/dup-says-deal-with-tories-95-complete","type":"article","sectionId":"politics","sectionName":"Politics","webPublicationDate":"2017-06-21T10:41:24Z","webTitle":"DUP says deal with Tories 95% complete","webUrl":"https://www.theguardian.com/politics/2017/jun/21/dup-says-deal-with-tories-95-complete","apiUrl":"https://content.guardianapis.com/politics/2017/jun/21/dup-says-deal-with-tories-95-complete","isHosted":false},{"id":"sport/live/2017/jun/21/royal-ascot-2017-day-two-live","type":"liveblog","sectionId":"sport","sectionName":"Sport","webPublicationDate":"2017-06-21T10:40:34Z","webTitle":"Royal Ascot 2017: day two – live!","webUrl":"https://www.theguardian.com/sport/live/2017/jun/21/royal-ascot-2017-day-two-live","apiUrl":"https://content.guardianapis.com/sport/live/2017/jun/21/royal-ascot-2017-day-two-live","isHosted":false},{"id":"lifeandstyle/2017/jun/21/why-runners-cyclists-track-anti-clockwise","type":"article","sectionId":"lifeandstyle","sectionName":"Life and style","webPublicationDate":"2017-06-21T10:30:28Z","webTitle":"Why do track runners and cyclists always race anti-clockwise?","webUrl":"https://www.theguardian.com/lifeandstyle/2017/jun/21/why-runners-cyclists-track-anti-clockwise","apiUrl":"https://content.guardianapis.com/lifeandstyle/2017/jun/21/why-runners-cyclists-track-anti-clockwise","isHosted":false}]}}